﻿Хост/Объект;Триггер;TriggerID Moira;Triger ID краткий;Severity Moira;Порог (на момент запуска);Описание;Действие NOC;Описание влияния;Приоритет new;Приоритет было;Влияние на абонентов;Влияние на выручку;Влияние на репутацию;Влияние на внутренних пользователей
MME Host X;Protei_MME Restart;MME_{$GEO}.{Node}.Protei_MME.restart;restart;WARN;;Сервис MME был недавно перезапущен;Проинформировать дежурного PSCore по телефону и сделать оповещение по почте на адрес PSCore@tele2.ru;Абоненты, которые обслуживаются данным MME перейдут на другие ММЕ с возможным переподключением;3;2;Да;Да;Да;Нет
MME Host X;Protei_MME Restarts counter;MME_{$GEO}.{Node}.Protei_MME.restarts_counter;restarts_counter;WARN;WARN >= 3;Сервис MME был перезапущен несколько раз в течение 10 минут;Проинформировать дежурного PSCore по телефону и сделать оповещение по почте на адрес PSCore@tele2.ru;ММЕ работает не стабильно, сессии абонентов, созданные через данный ММЕ могут сбрасываться или перенаправляться на другие ММЕ;3;2;Да;Да;Да;Нет
MME Host X;Protei_MME Restarts counter;MME_{$GEO}.{Node}.Protei_MME.restarts_counter;restarts_counter;ERR;ERR >= 6;Сервис MME был перезапущен несколько раз в течение 10 минут;Проинформировать дежурного PSCore по телефону и сделать оповещение по почте на адрес PSCore@tele2.ru;ММЕ работает не стабильно, сессии абонентов, созданные через данный ММЕ могут сбрасываться или перенаправляться на другие ММЕ;3;2;Да;Да;Да;Нет
MME Host X;Protei_MME Stop;MME_{$GEO}.{Node}.Protei_MME.systemd_unit;systemd_unit;ERR;ERR: systemd unit не запущен;Сервис ММЕ остановлен на хосте;Проинформировать дежурного PSCore по телефону и сделать оповещение по почте на адрес PSCore@tele2.ru;ММЕ не работает. Сессии перенаправляются на другие ММЕ;3;2;Да;Да;Да;Нет
MME Host X;FRR Restart;MME_{$GEO}.{Node}.FRR.restart;restart;WARN;;Сервис FRR был недавно перезапущен;Проинформировать дежурного PSCore по телефону и сделать оповещение по почте на адрес PSCore@tele2.ru;Возможна потеря связности MME с внешними узлами из-за отсутствия BGP маршрутов;3;2;Да;Да;Да;
MME Host X;FRR Restarts counter;MME_{$GEO}.{Node}.FRR.restarts_counter;restarts_counter;WARN;WARN >= 3;Сервис FRR был перезапущен несколько раз в течение 10 минут;Проинформировать дежурного PSCore по телефону и сделать оповещение по почте на адрес PSCore@tele2.ru;Нестабильная сетевая связность ММЕ с внешними узлами EPC;3;2;Да;Да;Да;Нет
MME Host X;FRR Restarts counter;MME_{$GEO}.{Node}.FRR.restarts_counter;restarts_counter;ERR;ERR >= 6;Сервис FRR был перезапущен несколько раз в течение 10 минут;Проинформировать дежурного PSCore по телефону и сделать оповещение по почте на адрес PSCore@tele2.ru;Нестабильная сетевая связность ММЕ с внешними узлами EPC;3;2;Да;Да;Да;Нет
MME Host X;FRR Stop;MME_{$GEO}.{Node}.FRR.systemd_unit;systemd_unit;ERR;ERR: systemd unit не запущен;Сервис FRR остановлен на хосте;Проинформировать дежурного PSCore по телефону и сделать оповещение по почте на адрес PSCore@tele2.ru;FRR не работает. Все линки в неактивном состоянии, соответсвующий ММЕ не обрабатывает трафик.;3;2;Да;Да;Да;Нет
MME Host X;mysql Restart;MME_{$GEO}.{Node}.mysql.restart;mysql.restart;WARN;;Сервис MariaDB был недавно перезапущен;Проинформировать дежурного PSCore по телефону и сделать оповещение по почте на адрес PSCore@tele2.ru;Пользовательские данные на момент перезапуска не попадут в хранилище, при перезапуске ММЕ не будет возможности восстановить абонентский контекст в рамках перехода на другой MME;3;2;Нет;Нет;Нет;Нет
MME Host X;mysql Restarts counter;MME_{$GEO}.{Node}.mysql.restarts_counter;mysql.restarts_counter;WARN;WARN >= 3;Сервис MariaDB был перезапущен несколько раз в течение 10 минут;Проинформировать дежурного PSCore по телефону и сделать оповещение по почте на адрес PSCore@tele2.ru;Пользовательские данные на момент перезапуска не попадут в хранилище, при перезапуске ММЕ не будет возможности восстановить абонентский контекст в рамках перехода на другой MME;3;2;Нет;Нет;Нет;Нет
MME Host X;mysql Restarts counter;MME_{$GEO}.{Node}.mysql.restarts_counter;mysql.restarts_counter;ERR;ERR >= 6;Сервис MariaDB был перезапущен несколько раз в течение 10 минут;Проинформировать дежурного PSCore по телефону и сделать оповещение по почте на адрес PSCore@tele2.ru;Пользовательские данные на момент перезапуска не попадут в хранилище, при перезапуске ММЕ не будет возможности восстановить абонентский контекст в рамках перехода на другой MME;3;2;Нет;Нет;Нет;Нет
MME Host X;mysql Stop;MME_{$GEO}.{Node}.mysql.systemd_unit;mysql.systemd_unit;ERR;ERR: systemd unit не запущен;Сервис mariadb остановлен на хосте;Проинформировать дежурного PSCore по телефону и сделать оповещение по почте на адрес PSCore@tele2.ru;Пользовательские данные на момент перезапуска не попадут в хранилище, при перезапуске ММЕ не будет возможности восстановить абонентский контекст в рамках перехода на другой MME;3;2;Нет;Нет;Нет;Нет
MME Host X;Protei_MME RSS Usage;MME_{$GEO}.{Node}.Protei_MME.RSSusage;RSSusage;WARN;WARN: 10Gb * 2;Потребление оперативной памяти сервисом MME выше ожидаемого значения;Проинформировать дежурного PSCore по телефону и сделать оповещение по почте на адрес PSCore@tele2.ru;Возможные причины: утечка памяти на приложении, либо рост потребления RAM в связи с ростом нагрузки. Для принятия решения о дальнейших шагах  требуется  диагностика со стороны Протей;4;4;Нет;Нет;Нет;Нет
MME Host X;Protei_MME RSS Usage;MME_{$GEO}.{Node}.Protei_MME.RSSusage;RSSusage;ERR;ERR: 10Gb * 3;Потребление оперативной памяти сервисом MME существенно выше ожидаемого значения;Проинформировать дежурного PSCore по телефону и сделать оповещение по почте на адрес PSCore@tele2.ru;Есть риск перезапуска сервиса из-за недостатка оперативной памяти в следствии работы OOM Killer;4;3;Возможно;Возможно;Возможно;Нет
MME Host X;Protei_MME CPU Usage;MME_{$GEO}.{$Node}.Protei_MME.CPUusage;CPUusage;WARN;WARN: 10% *1.5;Потребление CPU сервисом MME выше ожидаемого значения;Проинформировать дежурного PSCore по телефону и сделать оповещение по почте на адрес PSCore@tele2.ru;Возможные причины: рост потребления ресурсов CPU в связи с ростом paging нагрузки. Для принятия решения о дальнейших шагах  требуется  диагностика со стороны Протей;4;4;Нет;Нет;Нет;Нет
MME Host X;Protei_MME CPU Usage;MME_{$GEO}.{$Node}.Protei_MME.CPUusage;CPUusage;ERR;ERR: 10% *2;Потребление CPU сервисом MME существенно выше ожидаемого значения;Проинформировать дежурного PSCore по телефону и сделать оповещение по почте на адрес PSCore@tele2.ru;Есть риск  перезапуска CPU, а так же отказ: в установлении подключения / отключения пользовательских устройств;подключение к / отключение от сети передачи данных (PDN) пользовательских устройств;4;3;Возможно;Возможно;Возможно;Нет
MME Host X;mysql RSS Usage;MME_{$GEO}.{Node}.mysql.RSSusage;mysql.RSSusage;WARN;WARN 1Gb * 2;Потребление оперативной памяти MariaDB выше ожидаемого значения;Проинформировать дежурного PSCore по телефону и сделать оповещение по почте на адрес PSCore@tele2.ru;Возможные причины: утечка памяти на приложении MariaDB, либо рост потребления RAM в связи с ростом нагрузки. Для принятия решения о дальнейших шагах  требуется  диагностика со стороны Протей;4;4;Нет;Нет;Нет;Нет
MME Host X;mysql RSS Usage;MME_{$GEO}.{Node}.mysql.RSSusage;mysql.RSSusage;ERR;ERR 1Gb * 3;Потребление оперативной памяти сервисом MariaDB существенно выше ожидаемого значения;Проинформировать дежурного PSCore по телефону и сделать оповещение по почте на адрес PSCore@tele2.ru;Есть риск перезапуска сервиса из-за недостатка оперативной памяти в следствии работы OOM Killer;4;3;Возможно;Возможно;Возможно;Нет
MME Host X;mysql CPU Usage;MME_{$GEO}.{$Node}.mysql.CPUusage;mysql.CPUusage;WARN;WARN: 50 * 1.5;Потребление CPU сервисом MariaDB выше ожидаемого значения;Проинформировать дежурного PSCore по телефону и сделать оповещение по почте на адрес PSCore@tele2.ru;Возможные причины: рост потребления ресурсов CPU в связи с ростом paging нагрузки. Для принятия решения о дальнейших шагах  требуется  диагностика со стороны Протей;4;4;Нет;Нет;Нет;Нет
MME Host X;mysql CPU Usage;MME_{$GEO}.{$Node}.mysql.CPUusage;mysql.CPUusage;ERR;ERR: 50 * 1.5;Потребление CPU сервисом MariaDB существенно выше ожидаемого значения;Проинформировать дежурного PSCore по телефону и сделать оповещение по почте на адрес PSCore@tele2.ru;Есть риск  перезапуска CPU, а так же отказ: в установлении подключения / отключения пользовательских устройств;подключение к / отключение от сети передачи данных (PDN) пользовательских устройств;4;3;Возможно;Возможно;Возможно;Нет
MME Host X;FRR CPU Usage;MME_{$GEO}.{$Node}.FRR.CPUusage;CPUusage;WARN;WARN: 10% *1.5;Потребление CPU сервисом FRR выше ожидаемого значения;Проинформировать дежурного PSCore по телефону и сделать оповещение по почте на адрес PSCore@tele2.ru;Возможные причины: рост потребления ресурсов CPU в связи с ростом paging нагрузки. Для принятия решения о дальнейших шагах  требуется  диагностика со стороны Протей;4;4;Нет;Нет;Нет;Нет
MME Host X;FRR CPU Usage;MME_{$GEO}.{$Node}.FRR.CPUusage;CPUusage;ERR;ERR: 10% *2;Потребление CPU сервисом FRR существенно выше ожидаемого значения;Проинформировать дежурного PSCore по телефону и сделать оповещение по почте на адрес PSCore@tele2.ru;Есть риск  перезапуска CPU, а так же отказ: в установлении подключения / отключения пользовательских устройств, подключение к / отключение от сети передачи данных (PDN) пользовательских устройств;4;3;Возможно;Возможно;Возможно;Нет
MME Host X;High Disk Space Usage;MME_{$GEO}.{$Node}.UsedDiskSpace;UsedDiskSpace;WARN;WARN: 85%;Заполнение диска выше ожидаемого значения;Проинформировать дежурного PSCore по телефону и сделать оповещение по почте на адрес PSCore@tele2.ru;Рост потребления ресурсов HDD в связи с ростом нагрузки. Данные могут не попасть в хранилище. Для принятия решения о дальнейших шагах  требуется  диагностика со стороны Протей;4;4;Нет;Нет;Нет;Нет
MME Host X;High Disk Space Usage;MME_{$GEO}.{$Node}.UsedDiskSpace;UsedDiskSpace;ERR;ERR: 95%;Заполнение диска существенно выше ожидаемого значения;Проинформировать дежурного PSCore по телефону и сделать оповещение по почте на адрес PSCore@tele2.ru;Рост потребления ресурсов HDD в связи с ростом нагрузки. Могут не попадать в хранилище. Для принятия решения о дальнейших шагах  требуется  диагностика со стороны Протей;4;3;Возможно;Возможно;Возможно;Нет
MME Host X;High Load Average;MME_{$GEO}.{$Node}.LoadAverage;LoadAverage;WARN;WARN: LoadAverage1 / CoreCount > 1;Load average на Хосте MME  выше ожидаемого;Проинформировать дежурного PSCore по телефону и сделать оповещение по почте на адрес PSCore@tele2.ru;Рост потребления ресурсов CPU Load Average в связи с кратковременным ростом нагрузки. Для принятия решения о дальнейших шагах  требуется  диагностика со стороны Протей;4;4;Нет;Нет;Нет;Нет
MME Host X;High Load Average;MME_{$GEO}.{$Node}.LoadAverage;LoadAverage;WARN;ERR: LoadAverage1 / CoreCount > 1.5;Load average на Хосте MME существенно выше ожидаемого;Проинформировать дежурного PSCore по телефону и сделать оповещение по почте на адрес PSCore@tele2.ru;Рост потребления ресурсов CPU Load Average в связи с  ростом нагрузки. Для принятия решения о дальнейших шагах  требуется  диагностика со стороны Протей;3;3;Возможно;Возможно;Возможно;Нет
MME Host X;High Used CPU Percent;MME_{$GEO}.{$Node}.UsedCPUPercent;UsedCPUPercent;WARN;WARN: >80%;%  загрузки CPU на хосте MME выше ожидаемого;Проинформировать дежурного PSCore по телефону и сделать оповещение по почте на адрес PSCore@tele2.ru;Загрузка CPU выше назначенного порога. Необходим анализ запущенных процессов пользователей на хосте;4;4;Нет;Нет;Нет;Нет
MME Host X;High Used CPU Percent;MME_{$GEO}.{$Node}.UsedCPUPercent;UsedCPUPercent;ERR;ERR: >90%;%  загрузки CPU на хосте MME существенно выше ожидаемого;Проинформировать дежурного PSCore по телефону и сделать оповещение по почте на адрес PSCore@tele2.ru;Загрузка CPU выше назначенного порога. Необходим анализ запущенных процессов пользователей на хосте. Для принятия решения о дальнейших шагах  требуется  диагностика со стороны Протей;4;3;Возможно;Возможно;Возможно;Нет
MME Host X;High Used Memory Percent;MME_{$GEO}.{$Node}.UsedMemoryPercent;UsedMemoryPercent;WARN;WARN: >85%;Мало свободной оперативной памяти на хосте MME;Проинформировать дежурного PSCore по телефону и сделать оповещение по почте на адрес PSCore@tele2.ru;Загрузка памяти выше назначенного порога. Необходим анализ запущенных процессов пользователей на хосте;4;4;Нет;Нет;Нет;Нет
MME Host X;High Used Memory Percent;MME_{$GEO}.{$Node}.UsedMemoryPercent;UsedMemoryPercent;ERR;ERR: >95%;Критически мало свободной оперативной памяти на хосте MME;Проинформировать дежурного PSCore по телефону и сделать оповещение по почте на адрес PSCore@tele2.ru;Загрузка памяти выше назначенного порога. Необходим анализ запущенных процессов пользователей на хосте. Для принятия решения о дальнейших шагах  требуется  диагностика со стороны Протей;4;3;Возможно;Возможно;Возможно;Нет
MME Host X;Host Unreachable;MME_{$GEO}.{$Node}.HostUnreachable;HostUnreachable;WARN;WARN >75% - процент потери пакетов, недоступность с одного или более хостов;Сетевая недоступность хоста MME;Проинформировать дежурного PSCore по телефону и сделать оповещение по почте на адрес PSCore@tele2.ru;Возможен выход из строя сервервера или оборудования маршрутизаторов. Для принятия решения о дальнейших шагах  требуется  диагностика со стороны Протей;3;2;Да;Да;Возможно;Нет
MME Host X;Host Unreachable;MME_{$GEO}.{$Node}.HostUnreachable;HostUnreachable;ERR;ERR >75% - процент потери пакетов, недоступность со всех остальных нод;Сетевая недоступность хоста MME;Проинформировать дежурного PSCore по телефону и сделать оповещение по почте на адрес PSCore@tele2.ru;Возможен выход из строя сервервера или оборудования маршрутизаторов. Для принятия решения о дальнейших шагах  требуется  диагностика со стороны Протей;3;2;Да;Да;Возможно;Нет
MME Host X;Diameter Link State;MME_{$GEO}.{$Node}.Protei_MME.Diameter;Diameter;WARN;WARN – недоступность одного или более линков;Diameter подключение на MME неактивно в течение короткого интервала времени;Сделать оповещение по почте на адрес PSCore@tele2.ru;Возможны аварии на сетевых элементах или транспортной сети. При отсутсвии резервирования, возможна потеря трафика. Возможны задержки при передаче сообщений тарификации.;5;5;Возможно;Возможно;Возможно;Возможно
MME Host X;Diameter Link State;MME_{$GEO}.{$Node}.Protei_MME.Diameter;Diameter;ERR;WARN – недоступность всех линков;Все Diameter-подключения на MME неактивны в течение короткого интервала времени;Сделать оповещение по почте на адрес PSCore@tele2.ru;Возможны аварии на сетевых элементах или транспортной сети. При отсутсвии резервирования, возможна потеря трафика. Возможны задержки при передаче сообщений тарификации.;5;5;Возможно;Возможно;Возможно;Возможно
MME Host X;Diameter Long Failure;MME_{$GEO}.{$Node}.Protei_MME.Diameter_Long;Diameter_Long;WARN;WARN – недоступность одного или более линков в течение 15 минут;Diameter подключение на MME неактивно в течение длительного периода времени;Проинформировать дежурного PSCore по телефону и сделать оповещение по почте на адрес PSCore@tele2.ru;Возможны аварии на сетевых элементах или транспортной сети. При отсутсвии резервирования, возможна потеря трафика. Возможны задержки при передаче сообщений тарификации. Для принятия решения о дальнейших шагах  требуется  диагностика со стороны Протей;4;3;Да;Да;Возможно;Возможно
MME Host X;Diameter Long Failure;MME_{$GEO}.{$Node}.Protei_MME.Diameter_Long;Diameter_Long;ERR;ERR – недоступность всех линков в течение 15 минут;Все Diameter подключения на MME неактивны в течение длительного периода времени;Проинформировать дежурного PSCore по телефону и сделать оповещение по почте на адрес PSCore@tele2.ru;Возможны аварии на сетевых элементах или транспортной сети. При отсутсвии резервирования, возможна потеря трафика. Возможны задержки при передаче сообщений тарификации. Для принятия решения о дальнейших шагах  требуется  диагностика со стороны Протей;4;3;Да;Да;Возможно;Возможно
MME Host X;SGS Peer State;MME_{$GEO}.{$Node}.Protei_MME.SGSPeer;SGSPeer;WARN;WARN – недоступность одного или более линков;SGS подключение к одному из MSC неактивно в течение короткого интервала времени;Проинформировать дежурного PSCore по телефону и сделать оповещение по почте на адрес PSCore@tele2.ru;Функционал CSFB и SMSoS может не работать;4;4;Возможно;Возможно;Возможно;Нет
MME Host X;SGS Peer State;MME_{$GEO}.{$Node}.Protei_MME.SGSPeer;SGSPeer;ERR;WARN – недоступность всех линков;SGS подключение к одному из MSC неактивно в течение короткого интервала времени;Проинформировать дежурного PSCore по телефону и сделать оповещение по почте на адрес PSCore@tele2.ru;Функционал CSFB и SMSoS может не работать;4;4;Возможно;Возможно;Возможно;Нет
MME Host X;SGS Peer Long Failure;MME_{$GEO}.{$Node}.Protei_MME.SGSPeerLong;SGSPeerLong;WARN;WARN – недоступность одного или более линков в течение 15 минут;SGS подключение к одному из MSC неактивно в течение длительного периода времени;Проинформировать дежурного PSCore по телефону и сделать оповещение по почте на адрес PSCore@tele2.ru;Функционал CSFB и SMSoS может не работать;4;4;Возможно;Возможно;Возможно;Нет
MME Host X;SGS Peer Long Failure;MME_{$GEO}.{$Node}.Protei_MME.SGSPeerLong;SGSPeerLong;ERR;ERR – недоступность всех линков в течение 15 минут;SGS подключение к одному из MSC неактивно в течение длительного периода времени;Проинформировать дежурного PSCore по телефону и сделать оповещение по почте на адрес PSCore@tele2.ru;Функционал CSFB и SMSoS может не работать;4;4;Возможно;Возможно;Возможно;Нет
MME Host X;Connected eNodeB Count;MME_{$GEO}.{$Node}.Protei_MME.ConnectedeNodeBCount;ConnectedeNodeBCount;WARN;WARN: < 95%;Процент подключенных enodeB ниже ожидаемого значения;Сделать оповещение по почте на адрес PSCore@tele2.ru;Возможно ограничение обрабатываемого трафика, часть EnodeB недоступна;5;5;Возможно;Возможно;Возможно;Нет
MME Host X;Connected eNodeB Count;MME_{$GEO}.{$Node}.Protei_MME.ConnectedeNodeBCount;ConnectedeNodeBCount;ERR;ERR: < 90%;Процент подключенных enodeB существенно ниже ожидаемого значения;Проинформировать дежурного PSCore по телефону и сделать оповещение по почте на адрес PSCore@tele2.ru;Возможно ограничение обрабатываемого трафика, часть EnodeB недоступна;4;4;Да;Да;Да;Нет
MME Host X;S1 Peer State;MME_{$GEO}.{$Node}.Protei_MME.S1Peer;S1Peer;WARN;WARN: недоступность одного или нескольких S1 линков;S1 подключение к одному из eNodeB неактивно в течение короткого интервала времени;Сделать оповещение по почте на адрес PSCore@tele2.ru;Трафик со стороны enodeB не обслуживается одним MME. При массовой аварии может привести к неравномерной загрузке пула;4;;Возможно;;;
MME Host X;S1 Peer State;MME_{$GEO}.{$Node}.Protei_MME.S1Peer;S1Peer;ERR;ERR: недоступность всех S1 линков;S1 подключение ко всем eNodeB неактивно в течение короткого интервала времени;Проинформировать дежурного PSCore по телефону и сделать оповещение по почте на адрес PSCore@tele2.ru;Трафик со стороны enodeB не обслуживается одним MME. При массовой аварии может привести к неравномерной загрузке пула;3;;Возможно;;;
MME Host X;S1 Peer Long Failure;MME_{$GEO}.{$Node}.Protei_MME.S1PeerLong;S1PeerLong;WARN;WARN: недоступность одного или нескольких S1 линков в течение 15 минут;S1 подключение к одному из eNodeB неактивно в течение короткого интервала времени;Сделать оповещение по почте на адрес PSCore@tele2.ru;Трафик со стороны enodeB не обслуживается одним MME. При массовой аварии может привести к неравномерной загрузке пула;4;;Возможно;;;
MME Host X;S1 Peer Long Failure;MME_{$GEO}.{$Node}.Protei_MME.S1PeerLong;S1PeerLong;ERR;ERR: недоступность всех S1 линков в течение 15 минут;S1 подключение ко всем eNodeB неактивно в течение короткого интервала времени;Проинформировать дежурного PSCore по телефону и сделать оповещение по почте на адрес PSCore@tele2.ru;Трафик со стороны enodeB не обслуживается одним MME. При массовой аварии может привести к неравномерной загрузке пула;3;;Возможно;;;
MME Host X;SGS Peer State;MME_{$GEO}.{$Node}.Protei_MME.SGSPeer;SGSPeer;WARN;WARN: недоступность одного или нескольких SGS линков;SGs ассоциация с MSC одного из MME в состоянии DOWN;Сделать оповещение по почте на адрес PSCore@tele2.ru;На проблемном MME произойдет перераспределение нагрузки между MSC в пуле. Возрастет нагрузка на MSC на 6%;4;;Возможно;;;
MME Host X;SGS Peer State;MME_{$GEO}.{$Node}.Protei_MME.SGSPeer;SGSPeer;ERR;ERR: недоступность всех линков;SGs ассоциация со всеми MSC одного из MME в состоянии DOWN;Проинформировать дежурного PSCore по телефону и сделать оповещение по почте на адрес PSCore@tele2.ru;На проблемном MME произойдет перераспределение нагрузки между MSC в пуле. Возрастет нагрузка на MSC на 6%;3;;Возможно;;;
MME Host X;SGS Peer Long Failure;MME_{$GEO}.{$Node}.Protei_MME.SGSPeerLong;SGSPeerLong;WARN;WARN: недоступность одного или нескольких SGS линков в течение 15 минут;SGs ассоциация с MSC одного из MME в состоянии DOWN в течение 15 минут;Сделать оповещение по почте на адрес PSCore@tele2.ru;На проблемном MME произойдет перераспределение нагрузки между MSC в пуле. Возрастет нагрузка на MSC на 6%;4;;Возможно;;;
MME Host X;SGS Peer Long Failure;MME_{$GEO}.{$Node}.Protei_MME.SGSPeerLong;SGSPeerLong;ERR;ERR: недоступность всех линков в течение 15 минут;Все SGs ассоциация с MSC одного из MME в состоянии DOWN в течение 15 минут.;Проинформировать дежурного PSCore по телефону и сделать оповещение по почте на адрес PSCore@tele2.ru;На проблемном MME произойдет перераспределение нагрузки между MSC в пуле. Возрастет нагрузка на MSC на 6%;3;;Возможно;;;
MME Host X;GTP S11 Peer State;MME_{$GEO}.{$Node}.Protei_MME.GtpS11;GtpS11;WARN;WARN: недоступность одного или нескольких GTP S11 линков;Сторонний SGW недоступен по GTP-интерфейсу S11;Сделать оповещение по почте на адрес PSCore@tele2.ru;GTP-запросы не будут направляться на недоступный SGWВсе установленные сессии с данным SGW будут переустановлены на другой SGW;4;;Да;;;
MME Host X;GTP S11 Peer State;MME_{$GEO}.{$Node}.Protei_MME.GtpS11;GtpS11;ERR;ERR: недоступность всех линков;Все сторонние SGW недоступны по GTP-интерфейсу S11;Сделать оповещение по почте на адрес PSCore@tele2.ru;GTP-запросы не будут направляться на недоступный SGWВсе установленные сессии с данным SGW будут переустановлены на другой SGW;4;;Да;;;
MME Host X;GTP S11 Peer Long Failure;MME_{$GEO}.{$Node}.Protei_MME.GtpS11Long;GtpS11Long;WARN;WARN: недоступность одного или нескольких GTP S11 линков в течение 15 минут;Сторонний SGW недоступен по GTP-интерфейсу S11;Проинформировать дежурного PSCore по телефону и сделать оповещение по почте на адрес PSCore@tele2.ru;GTP-запросы не будут направляться на недоступный SGWВсе установленные сессии с данным SGW будут переустановлены на другой SGW;4;;Да;;;
MME Host X;GTP S11 Peer Long Failure;MME_{$GEO}.{$Node}.Protei_MME.GtpS11Long;GtpS11Long;ERR;ERR: недоступность всех линков в течение 15 минут;Все сторонние SGW недоступны по GTP-интерфейсу S11;Проинформировать дежурного PSCore по телефону и сделать оповещение по почте на адрес PSCore@tele2.ru;GTP-запросы не будут направляться на недоступный SGWВсе установленные сессии с данным SGW будут переустановлены на другой SGW;4;;Да;;;
MME Host X;GTP S10 Peer State;MME_{$GEO}.{$Node}.Protei_MME.GtpS10;GtpS10;WARN;WARN: недоступность одного или нескольких GTP S10 линков;Сторонний MME недоступен по GTP-интерфейсу S10;Сделать оповещение по почте на адрес PSCore@tele2.ru;Невозможны переходы со сменой MME.Увеличится число неуспешных Handover со сменой MME, увеличится число неуспешных TAU, увеличится число Attach;4;;Да;;;
MME Host X;GTP S10 Peer State;MME_{$GEO}.{$Node}.Protei_MME.GtpS10;GtpS10;ERR;ERR: недоступность всех GTPS10 линков;Все сторонние MME недоступны по GTP-интерфейсу S10;Сделать оповещение по почте на адрес PSCore@tele2.ru;Невозможны переходы со сменой MME.Увеличится число неуспешных Handover со сменой MME, увеличится число неуспешных TAU, увеличится число Attach;4;;Да;;;
MME Host X;GTP S10 Peer Long Failure;MME_{$GEO}.{$Node}.Protei_MME.GtpS10Long;GtpS10Long;WARN;WARN: недоступность одного или нескольких GTP S10 линков в течение 15 минут;Сторонний MME недоступен по GTP-интерфейсу S10 в течение 15 минут;Сделать оповещение по почте на адрес PSCore@tele2.ru;Невозможны переходы со сменой MME.Увеличится число неуспешных Handover со сменой MME, увеличится число неуспешных TAU, увеличится число Attach;4;;Да;;;
MME Host X;GTP S10 Peer Long Failure;MME_{$GEO}.{$Node}.Protei_MME.GtpS10Long;GtpS10Long;ERR;ERR: недоступность всех линков в течение 15 минут;Все сторонние MME недоступны по GTP-интерфейсу S10 в течение 15 минут;Проинформировать дежурного PSCore по телефону и сделать оповещение по почте на адрес PSCore@tele2.ru;Невозможны переходы со сменой MME.Увеличится число неуспешных Handover со сменой MME, увеличится число неуспешных TAU, увеличится число Attach;3;;Да;;;
MME Host X;GTP Sv Peer State;MME_{$GEO}.{$Node}.Protei_MME.GtpSv;GtpSv;WARN;WARN: недоступность одного или нескольких GTP Sv линков;MSC недоступен по GTP-интерфейсу Sv;Сделать оповещение по почте на адрес PSCore@tele2.ru;Невозможен обмен с одним из MSC в рамках процедур SRVCCУвеличится SRVCC нагрузка на доустпные Sv MSC в пуле.;4;;Возможно;;;
MME Host X;GTP Sv Peer State;MME_{$GEO}.{$Node}.Protei_MME.GtpSv;GtpSv;ERR;ERR: недоступность всех GTP Sv линков;Все MSC недоступны по GTP-интерфейсу Sv;Сделать оповещение по почте на адрес PSCore@tele2.ru;Невозможен обмен со всеми MSC в рамках процедур SRVCCУвеличится SRVCC нагрузка на доустпные Sv MSC в пуле.;4;;Возможно;;;
MME Host X;GTP Sv Peer Long Failure;MME_{$GEO}.{$Node}.Protei_MME.GtpSvLong;GtpSvLong;WARN;WARN: недоступность одного или нескольких GTP Sv линков в течение 15 минут;MSC недоступен по GTP-интерфейсу Sv в течение 15 минут;Сделать оповещение по почте на адрес PSCore@tele2.ru;Невозможен обмен с одним из MSC в рамках процедур SRVCCУвеличится SRVCC нагрузка на доустпные Sv MSC в пуле.;4;;Возможно;;;
MME Host X;GTP Sv Peer Long Failure;MME_{$GEO}.{$Node}.Protei_MME.GtpSvLong;GtpSvLong;ERR;ERR: недоступность всех GTP Sv линков в течение 15 минут;Все MSC недоступны по GTP-интерфейсу Sv в течение 15 минут;Проинформировать дежурного PSCore по телефону и сделать оповещение по почте на адрес PSCore@tele2.ru;Невозможен обмен со всеми MSC в рамках процедур SRVCCУвеличится SRVCC нагрузка на доустпные Sv MSC в пуле.;3;;Да;;;
MME Host X;GTP GnGp Peer State;MME_{$GEO}.{$Node}.Protei_MME.GtpGnGp;GtpGnGp;WARN;WARN: недоступность одного или нескольких GTP GnGp линков;SGSN недоступен по интерфейсу Gn;Сделать оповещение по почте на адрес PSCore@tele2.ru;Невозможны iRAT переходы со сменой SGSN.Увеличится число неуспешных iRAT Handover увеличится число неуспешных TAU, увеличится число Attach;4;;Возможно;;;
MME Host X;GTP GnGp Peer State;MME_{$GEO}.{$Node}.Protei_MME.GtpGnGp;GtpGnGp;ERR;ERR: недоступность всех GTP GnGp линков;Все SGSN недоступны по интерфейсу Gn;Сделать оповещение по почте на адрес PSCore@tele2.ru;Невозможны iRAT переходы со сменой SGSN.Увеличится число неуспешных iRAT Handover увеличится число неуспешных TAU, увеличится число Attach;4;;Возможно;;;
MME Host X;GTP GnGp Peer Long Failure;MME_{$GEO}.{$Node}.Protei_MME.GtpGnGpLong;GtpGnGpLong;WARN;WARN: недоступность одного или нескольких GTP GnGp линков в течение 15 минут;SGSN недоступен по интерфейсу Gn в течение 15 минут;Сделать оповещение по почте на адрес PSCore@tele2.ru;Невозможны iRAT переходы со сменой SGSN.Увеличится число неуспешных iRAT Handover увеличится число неуспешных TAU, увеличится число Attach;4;;Возможно;;;
MME Host X;GTP GnGp Peer Long Failure;MME_{$GEO}.{$Node}.Protei_MME.GtpGnGpLong;GtpGnGpLong;ERR;ERR: недоступность всех Gtp GnGp линков в течение 15 минут;Все SGSN недоступны по интерфейсу Gn в течение 15 минут.;Проинформировать дежурного PSCore по телефону и сделать оповещение по почте на адрес PSCore@tele2.ru;Невозможны iRAT переходы со сменой SGSN.Увеличится число неуспешных iRAT Handover увеличится число неуспешных TAU, увеличится число Attach;3;;Возможно;;;
MME Host X;Attach Total Count;MME_{$GEO}.{$Node}.Protei_MME.AttachTotalCount;AttachTotalCount;WARN;WARN < X;Общее число Attach за интервал наблюдения (1м) ниже ожидаемого значения;Проинформировать дежурного PSCore по телефону и сделать оповещение по почте на адрес PSCore@tele2.ru;Частично не проходит Attach UE к сети;4;4;Да;Да;Да;Нет
MME Host X;Attach Total Count;MME_{$GEO}.{$Node}.Protei_MME.AttachTotalCount;AttachTotalCount;ERR;ERR < Y;Общее число Attach за интервал наблюдения (1м)  существенно ниже ожидаемого значения;Проинформировать дежурного PSCore по телефону и сделать оповещение по почте на адрес PSCore@tele2.ru;Частично не проходит Attach UE к сети;4;4;Да;Да;Да;Нет
MME Host X;Attach SuccessRate;MME_{$GEO}.{$Node}.Protei_MME.AttachSuccessRate;AttachSuccessRate;WARN;WARN < 90%;% успеха процедуры Attach за интервал наблюдения (1м) ниже ожидаемого значения;Проинформировать дежурного PSCore по телефону и сделать оповещение по почте на адрес PSCore@tele2.ru;Частично не проходит Attach UE к сети;4;3;Да;Да;Да;Нет
MME Host X;Attach SuccessRate;MME_{$GEO}.{$Node}.Protei_MME.AttachSuccessRate;AttachSuccessRate;ERR;ERR < 80%;% успеха процедуры Attach за интервал наблюдения (1м) существенно ниже ожидаемого значения;Проинформировать дежурного PSCore по телефону и сделать оповещение по почте на адрес PSCore@tele2.ru;Частично не проходит Attach UE к сети;4;3;Да;Да;Да;Нет
MME Host X;PDN Connectivity Total Count;MME_{$GEO}.{$Node}.Protei_MME.PDNConnectivityTotalCount;PDNConnectivityTotalCount;WARN;WARN < X;Общее число PDN Connectivity за интервал наблюдения (1м) ниже ожидаемого значения;Проинформировать дежурного PSCore по телефону и сделать оповещение по почте на адрес PSCore@tele2.ru;Default EPS bearer к PDN не устанавливается для всех соединений;4;4;Да;Да;Да;Нет
MME Host X;PDN Connectivity Total Count;MME_{$GEO}.{$Node}.Protei_MME.PDNConnectivityTotalCount;PDNConnectivityTotalCount;ERR;ERR < Y;Общее число PDN Connectivity за интервал наблюдения (1м) существенно ниже ожидаемого значения;Проинформировать дежурного PSCore по телефону и сделать оповещение по почте на адрес PSCore@tele2.ru;Default EPS bearer к PDN не устанавливается для всех соединений;4;4;Да;Да;Да;Нет
MME Host X;PDN Connectivity SuccessRate;MME_{$GEO}.{$Node}.Protei_MME.PDNConnectivitySuccessRate;PDNConnectivitySuccessRate;WARN;WARN < 90%;% успеха процедуры PDN Connectivity за интервал наблюдения (1м) ниже ожидаемого значения;Проинформировать дежурного PSCore по телефону и сделать оповещение по почте на адрес PSCore@tele2.ru;Default EPS bearer к PDN не устанавливается для всех соединений;4;3;Да;Да;Да;Нет
MME Host X;PDN Connectivity SuccessRate;MME_{$GEO}.{$Node}.Protei_MME.PDNConnectivitySuccessRate;PDNConnectivitySuccessRate;ERR;ERR < 80%;% успеха процедуры PDN Connectivity за интервал наблюдения (1м) существенно ниже ожидаемого значения;Проинформировать дежурного PSCore по телефону и сделать оповещение по почте на адрес PSCore@tele2.ru;Default EPS bearer к PDN не устанавливается для всех соединений;4;3;Да;Да;Да;Нет
MME Host X;TAU Inter Total Count;MME_{$GEO}.{$Node}.Protei_MME.TAUInterTotalCount;TAUInterTotalCount;WARN;WARN < X;Общее число TAU Inter за интервал наблюдения (1м) ниже ожидаемого значения;Проинформировать дежурного PSCore по телефону и сделать оповещение по почте на адрес PSCore@tele2.ru;Отправляемые UE TAU могут частично не обрабатываться. Возможна некоректная смена SGW и MME;4;4;Да;Да;Да;Нет
MME Host X;TAU Inter Total Count;MME_{$GEO}.{$Node}.Protei_MME.TAUInterTotalCount;TAUInterTotalCount;ERR;ERR < Y;Общее число TAU Inter за интервал наблюдения (1м) существенно ниже ожидаемого значения;Проинформировать дежурного PSCore по телефону и сделать оповещение по почте на адрес PSCore@tele2.ru;Отправляемые UE TAU могут частично не обрабатываться. Возможна некоректная смена SGW и MME;4;4;Да;Да;Да;Нет
MME Host X;TAU Inter SuccessRate;MME_{$GEO}.{$Node}.Protei_MME.TAUInterSuccessRate;TAUInterSuccessRate;WARN;WARN < 90%;% успеха процедуры PDN TAU Inter за интервал наблюдения (1м) ниже ожидаемого значения;Проинформировать дежурного PSCore по телефону и сделать оповещение по почте на адрес PSCore@tele2.ru;Отправляемые UE TAU могут частично не обрабатываться. Возможна некоректная смена SGW и MME  ;4;3;Да;Да;Да;Нет
MME Host X;TAU Inter SuccessRate;MME_{$GEO}.{$Node}.Protei_MME.TAUInterSuccessRate;TAUInterSuccessRate;ERR;ERR < 80%;% успеха процедуры PDN TAU Inter за интервал наблюдения (1м) существенно ниже ожидаемого значения;Проинформировать дежурного PSCore по телефону и сделать оповещение по почте на адрес PSCore@tele2.ru;Отправляемые UE TAU могут частично не обрабатываться. Возможна некоректная смена SGW и MME  ;4;3;Да;Да;Да;Нет
MME Host X;TAU Intra Total Count;MME_{$GEO}.{$Node}.Protei_MME.TAUIntraTotalCount;TAUIntraTotalCount;WARN;WARN < X;Общее число TAU Intra за интервал наблюдения (1м) ниже ожидаемого значения;Проинформировать дежурного PSCore по телефону и сделать оповещение по почте на адрес PSCore@tele2.ru;Отправляемые UE TAU могут частично не обрабатываться. Возможна некоректная смена SGW и MME;4;4;Да;Да;Да;Нет
MME Host X;TAU Intra Total Count;MME_{$GEO}.{$Node}.Protei_MME.TAUIntraTotalCount;TAUIntraTotalCount;ERR;ERR < Y;Общее число TAU Intra за интервал наблюдения (1м) существенно ниже ожидаемого значения;Проинформировать дежурного PSCore по телефону и сделать оповещение по почте на адрес PSCore@tele2.ru;Отправляемые UE TAU могут частично не обрабатываться. Возможна некоректная смена SGW и MME;4;4;Да;Да;Да;Нет
MME Host X;TAU Intra SuccessRate;MME_{$GEO}.{$Node}.Protei_MME.TAUIntraSuccessRate;TAUIntraSuccessRate;WARN;WARN < 90%;% успеха процедуры PDN TAU Intra за интервал наблюдения (1м) ниже ожидаемого значения;Проинформировать дежурного PSCore по телефону и сделать оповещение по почте на адрес PSCore@tele2.ru;Отправляемые UE TAU могут частично не обрабатываться. Возможна некоректная смена SGW и MME  ;4;3;Да;Да;Да;Нет
MME Host X;TAU Intra SuccessRate;MME_{$GEO}.{$Node}.Protei_MME.TAUIntraSuccessRate;TAUIntraSuccessRate;ERR;ERR < 80%;% успеха процедуры PDN TAU Intra за интервал наблюдения (1м) ниже ожидаемого значения;Проинформировать дежурного PSCore по телефону и сделать оповещение по почте на адрес PSCore@tele2.ru;Отправляемые UE TAU могут частично не обрабатываться. Возможна некоректная смена SGW и MME  ;4;3;Да;Да;Да;Нет
MME Host X;Service Request Total Count;MME_{$GEO}.{$Node}.Protei_MME.ServiceReqTotalCount;ServiceReqTotalCount;WARN;WARN < X;Общее число Service Request за интервал наблюдения (1м) существенно ниже ожидаемого значения;Проинформировать дежурного PSCore по телефону и сделать оповещение по почте на адрес PSCore@tele2.ru;Существует проблема в установке новых user plane radio bearers для UE, не проходит paging;4;4;Да;Да;Да;Нет
MME Host X;Service Request Total Count;MME_{$GEO}.{$Node}.Protei_MME.ServiceReqTotalCount;ServiceReqTotalCount;ERR;ERR < Y;Общее число Service Request за интервал наблюдения (1м) ниже ожидаемого значения;Проинформировать дежурного PSCore по телефону и сделать оповещение по почте на адрес PSCore@tele2.ru;Существует проблема в установке новых user plane radio bearers для UE, не проходит paging;4;4;Да;Да;Да;Нет
MME Host X;Service Request SuccessRate;MME_{$GEO}.{$Node}.Protei_MME.ServiceReqSuccessRate;ServiceReqSuccessRate;WARN;WARN < 90%;% успеха процедуры Service Request за интервал наблюдения (1м) существенно ниже ожидаемого значения;Проинформировать дежурного PSCore по телефону и сделать оповещение по почте на адрес PSCore@tele2.ru;Существует проблема в установке новых user plane radio bearers для UE, не проходит paging;4;3;Да;Да;Да;Нет
MME Host X;Service Request SuccessRate;MME_{$GEO}.{$Node}.Protei_MME.ServiceReqSuccessRate;ServiceReqSuccessRate;ERR;ERR < 80%;% успеха процедуры Service Request за интервал наблюдения (1м) ниже ожидаемого значения;Проинформировать дежурного PSCore по телефону и сделать оповещение по почте на адрес PSCore@tele2.ru;Существует проблема в установке новых user plane radio bearers для UE, не проходит paging;4;3;Да;Да;Да;Нет
MME Host X;LTE X2 HO Total Count;MME_{$GEO}.{$Node}.Protei_MME.LTEX2HOTotalCount;LTEX2HOTotalCount;WARN;WARN < X;Общее число X2 Handover за интервал наблюдения (1м) существенно ниже ожидаемого значения;Проинформировать дежурного PSCore по телефону и сделать оповещение по почте на адрес PSCore@tele2.ru;Сессии абонентов могут сбрасываться по причине непрохождения handover;4;4;Да;Да;Да;Нет
MME Host X;LTE X2 HO Total Count;MME_{$GEO}.{$Node}.Protei_MME.LTEX2HOTotalCount;LTEX2HOTotalCount;ERR;ERR < Y;Общее число X2 Handover за интервал наблюдения (1м) ниже ожидаемого значения;Проинформировать дежурного PSCore по телефону и сделать оповещение по почте на адрес PSCore@tele2.ru;Сессии абонентов могут сбрасываться по причине непрохождения handover;4;4;Да;Да;Да;Нет
MME Host X;LTE X2 HO SuccessRate;MME_{$GEO}.{$Node}.Protei_MME.LTEX2HOSuccessRate;LTEX2HOSuccessRate;WARN;WARN < 90%;% успеха процедуры X2 Handover за интервал наблюдения (1м) ниже ожидаемого значения;Проинформировать дежурного PSCore по телефону и сделать оповещение по почте на адрес PSCore@tele2.ru;Сессии абонентов могут сбрасываться по причине непрохождения handover;4;3;Да;Да;Да;Нет
MME Host X;LTE X2 HO SuccessRate;MME_{$GEO}.{$Node}.Protei_MME.LTEX2HOSuccessRate;LTEX2HOSuccessRate;ERR;ERR < 80%;% успеха процедуры X2 Handover за интервал наблюдения (1м) существенно ниже ожидаемого значения;Проинформировать дежурного PSCore по телефону и сделать оповещение по почте на адрес PSCore@tele2.ru;Сессии абонентов могут сбрасываться по причине непрохождения handover;4;3;Да;Да;Да;Нет
MME Host X;LTE S1 HO Total Count;MME_{$GEO}.{$Node}.Protei_MME.LTES1HOTotalCount;LTES1HOTotalCount;WARN;WARN < X;Общее число S1 Handover за интервал наблюдения (1м) ниже ожидаемого значения;Проинформировать дежурного PSCore по телефону и сделать оповещение по почте на адрес PSCore@tele2.ru; Сессии абонентов могут сбрасываться по причине непрохождения handover;4;4;Да;Да;Да;Нет
MME Host X;LTE S1 HO Total Count;MME_{$GEO}.{$Node}.Protei_MME.LTES1HOTotalCount;LTES1HOTotalCount;ERR;ERR < Y;Общее число S1 Handover за интервал наблюдения (1м) существенно ниже ожидаемого значения;Проинформировать дежурного PSCore по телефону и сделать оповещение по почте на адрес PSCore@tele2.ru; Сессии абонентов могут сбрасываться по причине непрохождения handover;4;4;Да;Да;Да;Нет
MME Host X;LTE S1 HO SuccessRate;MME_{$GEO}.{$Node}.Protei_MME.LTES1HOSuccessRate;LTES1HOSuccessRate;WARN;WARN < 90%;% успеха процедуры S1 Handover за интервал наблюдения (1м) ниже ожидаемого значения;Проинформировать дежурного PSCore по телефону и сделать оповещение по почте на адрес PSCore@tele2.ru;Сессии абонентов могут сбрасываться по причине непрохождения handover;4;3;Да;Да;Да;Нет
MME Host X;LTE S1 HO SuccessRate;MME_{$GEO}.{$Node}.Protei_MME.LTES1HOSuccessRate;LTES1HOSuccessRate;ERR;ERR < 80%;% успеха процедуры S1 Handover за интервал наблюдения (1м) существенно ниже ожидаемого значения;Проинформировать дежурного PSCore по телефону и сделать оповещение по почте на адрес PSCore@tele2.ru;Сессии абонентов могут сбрасываться по причине непрохождения handover;4;3;Да;Да;Да;Нет
MME Host X;iRAT HO 4->3 Total Count;MME_{$GEO}.{$Node}.Protei_MME.iRATHO43TotalCount;iRATHO43TotalCount;WARN;WARN < X;Общее число Handover LTE UTRAN за интервал наблюдения (1м) ниже ожидаемого значения;Проинформировать дежурного PSCore по телефону и сделать оповещение по почте на адрес PSCore@tele2.ru;Сессии абонентов могут сбрасываться по причине выпадения из радиопокрытия LTE;4;4;Да;Да;Да;Нет
MME Host X;iRAT HO 4->3 Total Count;MME_{$GEO}.{$Node}.Protei_MME.iRATHO43TotalCount;iRATHO43TotalCount;ERR;ERR < Y;Общее число Handover LTE UTRAN за интервал наблюдения (1м) ниже ожидаемого значения;Проинформировать дежурного PSCore по телефону и сделать оповещение по почте на адрес PSCore@tele2.ru;Сессии абонентов могут сбрасываться по причине выпадения из радиопокрытия LTE;4;4;Да;Да;Да;Нет
MME Host X;iRAT HO 4->3 SuccessRate;MME_{$GEO}.{$Node}.Protei_MME.iRATHO43SuccessRate;iRATHO43SuccessRate;WARN;WARN < 90%;% успеха процедуры Handover LTE UTRAN за интервал наблюдения (1м) ниже ожидаемого значения;Проинформировать дежурного PSCore по телефону и сделать оповещение по почте на адрес PSCore@tele2.ru;Сессии абонентов могут сбрасываться по причине выпадения из радиопокрытия LTE;4;3;Да;Да;Да;Нет
MME Host X;iRAT HO 4->3 SuccessRate;MME_{$GEO}.{$Node}.Protei_MME.iRATHO43SuccessRate;iRATHO43SuccessRate;ERR;ERR < 80%;% успеха процедуры Handover LTE UTRAN за интервал наблюдения (1м) ниже ожидаемого значения;Проинформировать дежурного PSCore по телефону и сделать оповещение по почте на адрес PSCore@tele2.ru;Сессии абонентов могут сбрасываться по причине выпадения из радиопокрытия LTE;4;3;Да;Да;Да;Нет
MME Host X;iRAT HO 3->4 Total Count;MME_{$GEO}.{$Node}.Protei_MME.iRATHO34TotalCount;iRATHO34TotalCount;WARN;WARN < X;Общее число Handover UTRAN LTE за интервал наблюдения (1м) ниже ожидаемого значения;Проинформировать дежурного PSCore по телефону и сделать оповещение по почте на адрес PSCore@tele2.ru;Сессии абонентов могут сбрасываться по причине выпадения из радиопокрытия WCDMA;4;4;Да;Да;Да;Нет
MME Host X;iRAT HO 3->4 Total Count;MME_{$GEO}.{$Node}.Protei_MME.iRATHO34TotalCount;iRATHO34TotalCount;ERR;ERR < Y;Общее число Handover UTRAN LTE за интервал наблюдения (1м) существенно ниже ожидаемого значения;Проинформировать дежурного PSCore по телефону и сделать оповещение по почте на адрес PSCore@tele2.ru;Сессии абонентов могут сбрасываться по причине выпадения из радиопокрытия WCDMA;4;4;Да;Да;Да;Нет
MME Host X;iRAT HO 3->4 SuccessRate;MME_{$GEO}.{$Node}.Protei_MME.iRATHO34SuccessRate;iRATHO34SuccessRate;WARN;WARN < 90%;% успеха процедуры Handover UTRAN LTE за интервал наблюдения (1м) ниже ожидаемого значения;Проинформировать дежурного PSCore по телефону и сделать оповещение по почте на адрес PSCore@tele2.ru;Сессии абонентов могут сбрасываться по причине выпадения из радиопокрытия WCDMA;4;3;Да;Да;Да;Нет
MME Host X;iRAT HO 3->4 SuccessRate;MME_{$GEO}.{$Node}.Protei_MME.iRATHO34SuccessRate;iRATHO34SuccessRate;ERR;ERR < 80%;% успеха процедуры Handover UTRAN LTE за интервал наблюдения (1м) существенно ниже ожидаемого значения;Проинформировать дежурного PSCore по телефону и сделать оповещение по почте на адрес PSCore@tele2.ru;Сессии абонентов могут сбрасываться по причине выпадения из радиопокрытия WCDMA;4;3;Да;Да;Да;Нет
MME Host X;MO CSFB Total Count;MME_{$GEO}.{$Node}.Protei_MME.MOCSFBTotalCount;MOCSFBTotalCount;WARN;WARN < X;Общее число исходящих вызовов CSFB  за интервал наблюдения (1м) ниже ожидаемого значения;Проинформировать дежурного PSCore по телефону и сделать оповещение по почте на адрес PSCore@tele2.ru;У абонентов без подписки VoLTE теряется возможность совершать голосовые звонки;4;4;Да;Да;Да;Нет
MME Host X;MO CSFB Total Count;MME_{$GEO}.{$Node}.Protei_MME.MOCSFBTotalCount;MOCSFBTotalCount;ERR;ERR < Y;Общее число исходящих вызовов CSFB  за интервал наблюдения (1м) существенно ниже ожидаемого значения;Проинформировать дежурного PSCore по телефону и сделать оповещение по почте на адрес PSCore@tele2.ru;У абонентов без подписки VoLTE теряется возможность совершать голосовые звонки;4;4;Да;Да;Да;Нет
MME Host X;MO CSFB SuccessRate;MME_{$GEO}.{$Node}.Protei_MME.MOCSFBSuccessRate;MOCSFBSuccessRate;WARN;WARN < 90%;% успеха запроса CSFB MO Исх вызовов за интервал наблюдения (1м) ниже ожидаемого значения;Проинформировать дежурного PSCore по телефону и сделать оповещение по почте на адрес PSCore@tele2.ru;У абонентов без подписки VoLTE теряется возможность совершать голосовые звонки;4;3;Да;Да;Да;Нет
MME Host X;MO CSFB SuccessRate;MME_{$GEO}.{$Node}.Protei_MME.MOCSFBSuccessRate;MOCSFBSuccessRate;ERR;ERR < 80%;% успеха запроса CSFB MO Исх вызовов за интервал наблюдения (1м) существенно ниже ожидаемого значения;Проинформировать дежурного PSCore по телефону и сделать оповещение по почте на адрес PSCore@tele2.ru;У абонентов без подписки VoLTE теряется возможность совершать голосовые звонки;4;3;Да;Да;Да;Нет
MME Host X;MT CSFB Total Count;MME_{$GEO}.{$Node}.Protei_MME.MTCSFBTotalCount;MTCSFBTotalCount;WARN;WARN < X;Общее число входящих вызовов CSFB  за интервал наблюдения (1м) ниже ожидаемого значения;Проинформировать дежурного PSCore по телефону и сделать оповещение по почте на адрес PSCore@tele2.ru;У абонентов без подписки VoLTE теряется возможность принимать голосовые звонки;4;4;Да;Да;Да;Нет
MME Host X;MT CSFB Total Count;MME_{$GEO}.{$Node}.Protei_MME.MTCSFBTotalCount;MTCSFBTotalCount;ERR;ERR < Y;Общее число входящих вызовов CSFB  за интервал наблюдения (1м) существенно ниже ожидаемого значения;Проинформировать дежурного PSCore по телефону и сделать оповещение по почте на адрес PSCore@tele2.ru;У абонентов без подписки VoLTE теряется возможность принимать голосовые звонки;4;4;Да;Да;Да;Нет
MME Host X;MT CSFB SuccessRate;MME_{$GEO}.{$Node}.Protei_MME.MTCSFBSuccessRate;MTCSFBSuccessRate;WARN;WARN < 90%;% успеха запроса CSFB MT входящих вызовов за интервал наблюдения (1м) ниже ожидаемого значения;Проинформировать дежурного PSCore по телефону и сделать оповещение по почте на адрес PSCore@tele2.ru;У абонентов без подписки VoLTE теряется возможность принимать голосовые звонки;4;3;Да;Да;Да;Нет
MME Host X;MT CSFB SuccessRate;MME_{$GEO}.{$Node}.Protei_MME.MTCSFBSuccessRate;MTCSFBSuccessRate;ERR;ERR < 80%;% успеха запроса CSFB MT входящих вызовов за интервал наблюдения (1м) существенно ниже ожидаемого значения;Проинформировать дежурного PSCore по телефону и сделать оповещение по почте на адрес PSCore@tele2.ru;У абонентов без подписки VoLTE теряется возможность принимать голосовые звонки;4;3;Да;Да;Да;Нет
MME Host X;MO SMS Total Count;MME_{$GEO}.{$Node}.Protei_MME.MOSMSTotalCount;MOSMSTotalCount;WARN;WARN < X;Общее число исходящих MO SMS  за интервал наблюдения (1м) ниже ожидаемого значения;Проинформировать дежурного PSCore по телефону и сделать оповещение по почте на адрес PSCore@tele2.ru;У абонентов с CS подпиской теряется возможность отправлять SMS;4;4;Да;Да;Да;Нет
MME Host X;MO SMS Total Count;MME_{$GEO}.{$Node}.Protei_MME.MOSMSTotalCount;MOSMSTotalCount;ERR;ERR < Y;Общее число исходящих MO SMS  за интервал наблюдения (1м) существенно ниже ожидаемого значения;Проинформировать дежурного PSCore по телефону и сделать оповещение по почте на адрес PSCore@tele2.ru;У абонентов с CS подпиской теряется возможность отправлять SMS;4;4;Да;Да;Да;Нет
MME Host X;MO SMS SuccessRate;MME_{$GEO}.{$Node}.Protei_MME.MOSMSSuccessRate;MOSMSSuccessRate;WARN;WARN < 90%;% успеха  MO SMS за интервал наблюдения (1м) ниже ожидаемого значения;Проинформировать дежурного PSCore по телефону и сделать оповещение по почте на адрес PSCore@tele2.ru;У абонентов с CS подпиской теряется возможность отправлять SMS;4;3;Да;Да;Да;Нет
MME Host X;MO SMS SuccessRate;MME_{$GEO}.{$Node}.Protei_MME.MOSMSSuccessRate;MOSMSSuccessRate;ERR;ERR < 80%;% успеха  MO SMS за интервал наблюдения (1м) существенно ниже ожидаемого значения;Проинформировать дежурного PSCore по телефону и сделать оповещение по почте на адрес PSCore@tele2.ru;У абонентов с CS подпиской теряется возможность отправлять SMS;4;3;Да;Да;Да;Нет
MME Host X;MT SMS Total Count;MME_{$GEO}.{$Node}.Protei_MME.MTSMSTotalCount;MTSMSTotalCount;WARN;WARN < X;Общее число исходящих MT SMS  за интервал наблюдения (1м) ниже ожидаемого значения;Проинформировать дежурного PSCore по телефону и сделать оповещение по почте на адрес PSCore@tele2.ru;У абонентов с CS подпиской теряется возможность принимать SMS;4;4;Да;Да;Да;Нет
MME Host X;MT SMS Total Count;MME_{$GEO}.{$Node}.Protei_MME.MTSMSTotalCount;MTSMSTotalCount;ERR;ERR < Y;Общее число исходящих MT SMS  за интервал наблюдения (1м) существенно ниже ожидаемого значения;Проинформировать дежурного PSCore по телефону и сделать оповещение по почте на адрес PSCore@tele2.ru;У абонентов с CS подпиской теряется возможность принимать SMS;4;4;Да;Да;Да;Нет
MME Host X;MT SMS SuccessRate;MME_{$GEO}.{$Node}.Protei_MME.MTSMSSuccessRate;MTSMSSuccessRate;WARN;WARN < 90%;% успеха  MT SMS за интервал наблюдения (1м) ниже ожидаемого значения;Проинформировать дежурного PSCore по телефону и сделать оповещение по почте на адрес PSCore@tele2.ru;У абонентов с CS подпиской теряется возможность принимать SMS;4;3;Да;Да;Да;Нет
MME Host X;MT SMS SuccessRate;MME_{$GEO}.{$Node}.Protei_MME.MTSMSSuccessRate;MTSMSSuccessRate;ERR;ERR < 80%;% успеха  MT SMS за интервал наблюдения (1м) существенно ниже ожидаемого значения;Проинформировать дежурного PSCore по телефону и сделать оповещение по почте на адрес PSCore@tele2.ru;У абонентов с CS подпиской теряется возможность принимать SMS;4;3;Да;Да;Да;Нет
MME Host X;Dedicated Bearer Total Count Alert WARN;MME_{$GEO}.{$Node}.Protei_MME.DedicatedBearerTotalCount;DedicatedBearerTotalCount;WARN;WARN < X;Общее число активаций Dedicated bearer  за интервал наблюдения (1м) ниже ожидаемого значения;Проинформировать дежурного PSCore по телефону и сделать оповещение по почте на адрес PSCore@tele2.ru;У абонентов проблемы с установлением VoLTE/ViLTE вызовов ;4;4;Да;Да;Да;Нет
MME Host X;Dedicated Bearer Total Count Alert ERR;MME_{$GEO}.{$Node}.Protei_MME.DedicatedBearerTotalCount;DedicatedBearerTotalCount;ERR;ERR < Y;Общее число активаций Dedicated bearer  за интервал наблюдения (1м) существенно ниже ожидаемого значения;Проинформировать дежурного PSCore по телефону и сделать оповещение по почте на адрес PSCore@tele2.ru;У абонентов проблемы с установлением VoLTE/ViLTE вызовов ;4;4;Да;Да;Да;Нет
MME Host X;Dedicated Bearer Success Rate Alert WARN;MME_{$GEO}.{$Node}.Protei_MME.DedicatedBearerSuccessRate;DedicatedBearerSuccessRate;WARN;WARN < 90%;% успеха процедуры активации Dedicated Bearer за интервал наблюдения (1м) ниже ожидаемого значения;Проинформировать дежурного PSCore по телефону и сделать оповещение по почте на адрес PSCore@tele2.ru;У абонентов проблемы с установлением VoLTE/ViLTE вызовов ;4;3;Да;Да;Да;Нет
MME Host X;Dedicated Bearer Success Rate Alert ERR;MME_{$GEO}.{$Node}.Protei_MME.DedicatedBearerSuccessRate;DedicatedBearerSuccessRate;ERR;ERR < 80%;% успеха процедуры активации Dedicated Bearer за интервал наблюдения (1м) существенно ниже ожидаемого значения;Проинформировать дежурного PSCore по телефону и сделать оповещение по почте на адрес PSCore@tele2.ru;У абонентов проблемы с установлением VoLTE/ViLTE вызовов ;4;3;Да;Да;Да;Нет
MME Host X;PS Paging Total Count;MME_{$GEO}.{$Node}.Protei_MME.PSPagingTotalCount;PSPagingTotalCount;WARN;WARN < X;Общее число PS Paging  за интервал наблюдения (1м)  ниже ожидаемого значения;Проинформировать дежурного PSCore по телефону и сделать оповещение по почте на адрес PSCore@tele2.ru;Часть радиосети не обслуживается  MME;4;4;Да;Да;Да;Нет
MME Host X;PS Paging Total Count;MME_{$GEO}.{$Node}.Protei_MME.PSPagingTotalCount;PSPagingTotalCount;ERR;ERR < Y;Общее число PS Paging  за интервал наблюдения (1м) существенно  ниже ожидаемого значения;Проинформировать дежурного PSCore по телефону и сделать оповещение по почте на адрес PSCore@tele2.ru;Часть радиосети не обслуживается  MME;4;4;Да;Да;Да;Нет
MME Host X;PS Paging SuccessRate;MME_{$GEO}.{$Node}.Protei_MME.PSPagingSuccessRate;PSPagingSuccessRate;WARN;WARN < 90%;% успеха процедуры ps paging за интервал наблюдения (1м) ниже ожидаемого значения;Проинформировать дежурного PSCore по телефону и сделать оповещение по почте на адрес PSCore@tele2.ru;Часть радиосети не обслуживается  MME;4;3;Да;Да;Да;Нет
MME Host X;PS Paging SuccessRate;MME_{$GEO}.{$Node}.Protei_MME.PSPagingSuccessRate;PSPagingSuccessRate;ERR;ERR < 80%;% успеха процедуры ps paging за интервал наблюдения (1м) существенно ниже ожидаемого значения;Проинформировать дежурного PSCore по телефону и сделать оповещение по почте на адрес PSCore@tele2.ru;Часть радиосети не обслуживается  MME;4;3;Да;Да;Да;Нет
MME Host X;CS Paging Total Count;MME_{$GEO}.{$Node}.Protei_MME.CSPagingTotalCount;CSPagingTotalCount;WARN;WARN < X;Общее число CS Paging  за интервал наблюдения (1м) ниже ожидаемого значения;Проинформировать дежурного PSCore по телефону и сделать оповещение по почте на адрес PSCore@tele2.ru;Часть радиосети не обслуживается  MME;4;4;Да;Да;Да;Нет
MME Host X;CS Paging Total Count;MME_{$GEO}.{$Node}.Protei_MME.CSPagingTotalCount;CSPagingTotalCount;ERR;ERR < Y;Общее число CS Paging  за интервал наблюдения (1м) существенно ниже ожидаемого значения;Проинформировать дежурного PSCore по телефону и сделать оповещение по почте на адрес PSCore@tele2.ru;Часть радиосети не обслуживается  MME;4;4;Да;Да;Да;Нет
MME Host X;CS Paging SuccessRate;MME_{$GEO}.{$Node}.Protei_MME.CSPagingSuccessRate;CSPagingSuccessRate;WARN;WARN < 90%;% успеха процедуры cs paging за интервал наблюдения (1м) ниже ожидаемого значения;Проинформировать дежурного PSCore по телефону и сделать оповещение по почте на адрес PSCore@tele2.ru;Часть радиосети не обслуживается  MME;4;3;Да;Да;Да;Нет
MME Host X;CS Paging SuccessRate;MME_{$GEO}.{$Node}.Protei_MME.CSPagingSuccessRate;CSPagingSuccessRate;ERR;ERR < 80%;% успеха процедуры cs paging за интервал наблюдения (1м) существенно ниже ожидаемого значения;Проинформировать дежурного PSCore по телефону и сделать оповещение по почте на адрес PSCore@tele2.ru;Часть радиосети не обслуживается  MME;4;3;Да;Да;Да;Нет
MME Host X;Total DB Profiles;MME_{$GEO}.{$Node}.Protei_MME.TotalDBProfiles;TotalDBProfiles;WARN;WARN < X;Общее число профилей в БД MME ниже ожидаемого значения;Проинформировать дежурного PSCore по телефону и сделать оповещение по почте на адрес PSCore@tele2.ru;Влияние зависит от причины возникновения данного события:Потеря данных в связи с проблемами на стороне БД — без влияния на абонентовПотеря данных ;4;4;Да;Да;Да;Нет
MME Host X;Total DB Profiles;MME_{$GEO}.{$Node}.Protei_MME.TotalDBProfiles;TotalDBProfiles;ERR;ERR < Y;Общее число профилей в БД MME существенно ниже ожидаемого значения;Проинформировать дежурного PSCore по телефону и сделать оповещение по почте на адрес PSCore@tele2.ru;Влияние зависит от причины возникновения данного события:Потеря данных в связи с проблемами на стороне БД — без влияния на абонентовПотеря данных ;4;4;Да;Да;Да;Нет
MME Host X;Total Attached Subscribers;MME_{$GEO}.{$Node}.Protei_MME.AttachedSubscribers;AttachedSubscribers;WARN;WARN < X;Общее число EMM Registered  абонентов ниже ожидаемого значения.;Проинформировать дежурного PSCore по телефону и сделать оповещение по почте на адрес PSCore@tele2.ru;Малое число абонентов зарегистрировано на пуле ММЕ.;4;4;Да;Да;Да;Нет
MME Host X;Total Attached Subscribers;MME_{$GEO}.{$Node}.Protei_MME.AttachedSubscribers;AttachedSubscribers;ERR;ERR < Y;Общее число EMM Registered  абонентов существенно ниже ожидаемого значения.;Проинформировать дежурного PSCore по телефону и сделать оповещение по почте на адрес PSCore@tele2.ru;Малое число абонентов зарегистрировано на пуле ММЕ.;4;4;Да;Да;Да;Нет
MME Host X;S1AP Overload Initial UE;MME_{$GEO}.{$Node}.Protei_MME.S1APOverloadInitUE;S1APOverloadInitUE;WARN;WARN > X;Число S1AP InitUE сообщений в секунду, поступающих на MME, выше ожидаемого значения;Проинформировать дежурного PSCore по телефону и сделать оповещение по почте на адрес PSCore@tele2.ru;Часть абонентов не могут зарегистрироваться/обновить статус (radio bearer establishment);4;4;Да;Да;Да;Нет
MME Host X;S1AP Overload Initial UE;MME_{$GEO}.{$Node}.Protei_MME.S1APOverloadInitUE;S1APOverloadInitUE;ERR;ERR > Y;Число S1AP InitUE сообщений в секунду, поступающих на MME, существенно выше ожидаемого значения;Проинформировать дежурного PSCore по телефону и сделать оповещение по почте на адрес PSCore@tele2.ru;Часть абонентов не могут зарегистрироваться/обновить статус (radio bearer establishment);4;4;Да;Да;Да;Нет
MME Host X;S1AP Overload Attach request;MME_{$GEO}.{$Node}.Protei_MME.S1APOverloadAttachReq;S1APOverloadAttachReq;WARN;WARN > X;Число S1AP AttachReq сообщений в секунду, поступающих на MME, выше ожидаемого значения;Проинформировать дежурного PSCore по телефону и сделать оповещение по почте на адрес PSCore@tele2.ru;Часть абонентов не могут зарегистрироваться/обновить статус (radio bearer establishment);4;4;Да;Да;Да;Нет
MME Host X;S1AP Overload Attach request;MME_{$GEO}.{$Node}.Protei_MME.S1APOverloadAttachReq;S1APOverloadAttachReq;ERR;ERR > Y;Число S1AP AttachReq сообщений в секунду, поступающих на MME, существенно выше ожидаемого значения;Проинформировать дежурного PSCore по телефону и сделать оповещение по почте на адрес PSCore@tele2.ru;Часть абонентов не могут зарегистрироваться/обновить статус (radio bearer establishment);4;4;Да;Да;Да;Нет
MME Host X;S1AP Underload Initial UE;MME_{$GEO}.{$Node}.Protei_MME.S1APUnderloadInitUE;S1APUnderloadInitUE;WARN;WARN < X;Число S1AP InitUE сообщений в секунду, поступающих на MME, ниже ожидаемого значения;Проинформировать дежурного PSCore по телефону и сделать оповещение по почте на адрес PSCore@tele2.ru;Вероятно, что абоненты обслуживаются в других типах радиосети: 3G или 2G, либо на другом ММЕ из пула. Низкая сигнальная нагрузка поступающая со стороны радиосети говорит  о возможном наличии проблем как в работе радиосети, так и на стороне ядра, для выявления точных причин потребуется диагностика со стороны обоих частей сети.;4;4;Да;Да;Да;Нет
MME Host X;S1AP Underload Initial UE;MME_{$GEO}.{$Node}.Protei_MME.S1APUnderloadInitUE;S1APUnderloadInitUE;ERR;ERR < Y;Число S1AP InitUE сообщений в секунду, поступающих на MME, существенно ниже ожидаемого значения;Проинформировать дежурного PSCore по телефону и сделать оповещение по почте на адрес PSCore@tele2.ru;Вероятно, что абоненты обслуживаются в других типах радиосети: 3G или 2G, либо на другом ММЕ из пула. Низкая сигнальная нагрузка поступающая со стороны радиосети говорит  о возможном наличии проблем как в работе радиосети, так и на стороне ядра, для выявления точных причин потребуется диагностика со стороны обоих частей сети.;4;4;Да;Да;Да;Нет
MME Host X;S1AP Underload Attach request;MME_{$GEO}.{$Node}.Protei_MME.S1APUnderloadAttachReq;S1APUnderloadAttachReq;WARN;WARN < X;Число S1AP AttachReq сообщений в секунду, поступающих на MME, ниже ожидаемого значения;Проинформировать дежурного PSCore по телефону и сделать оповещение по почте на адрес PSCore@tele2.ru;Вероятно, что абоненты обслуживаются в других типах радиосети: 3G или 2G, либо на другом ММЕ из пула. Низкая сигнальная нагрузка поступающая со стороны радиосети говорит  о возможном наличии проблем как в работе радиосети, так и на стороне ядра, для выявления точных причин потребуется диагностика со стороны обоих частей сети.;4;4;Да;Да;Да;Нет
MME Host X;S1AP Underload Attach request;MME_{$GEO}.{$Node}.Protei_MME.S1APUnderloadAttachReq;S1APUnderloadAttachReq;ERR;ERR < Y;Число S1AP AttachReq сообщений в секунду, поступающих на MME, существенно ниже ожидаемого значения;Проинформировать дежурного PSCore по телефону и сделать оповещение по почте на адрес PSCore@tele2.ru;Вероятно, что абоненты обслуживаются в других типах радиосети: 3G или 2G, либо на другом ММЕ из пула. Низкая сигнальная нагрузка поступающая со стороны радиосети говорит  о возможном наличии проблем как в работе радиосети, так и на стороне ядра, для выявления точных причин потребуется диагностика со стороны обоих частей сети.;4;4;Да;Да;Да;Нет
MME Host X;DNS Status;MME_{$GEO}.{$Node}.Protei_MME.DNSStatus;DNSStatus;WARN;WARN: недоступность одного или нескольких DNS;DNS сервер недоступен с хоста  MME;Проинформировать дежурного PSCore по телефону и сделать оповещение по почте на адрес PSCore@tele2.ru;Абоненты не могут зарегистрироваться в сети/установить PDP контекст;4;3;Да;Да;Да;Нет
MME Host X;DNS Status;MME_{$GEO}.{$Node}.Protei_MME.DNSStatus;DNSStatus;ERR;ERR: недоступность всех серверов DNS;Все DNS сервера недоступны с хоста  MME;Проинформировать дежурного PSCore по телефону и сделать оповещение по почте на адрес PSCore@tele2.ru;Абоненты не могут зарегистрироваться в сети/установить PDP контекст;4;3;Да;Да;Да;Нет
MME Host X;BGP Peer State;MME_{$GEO}.{$Node}.FRR.BGPPeer;BGPPeer;WARN;WARN: падение одного или нескольких BGP линков;Разорвано BGP соединение с одним или несколькими Leaf;Проинформировать дежурного PSCore по телефону и сделать оповещение по почте на адрес PSCore@tele2.ru;Транспортная сеть кратковременно недоступна для взаимодействия серверов с размещенными элементами PS core;4;3;Возможно;Возможно;Возможно;Нет
MME Host X;BGP Peer State;MME_{$GEO}.{$Node}.FRR.BGPPeer;BGPPeer;ERR;ERR: падение всех BGP линков;Разорвано BGP соединение со всеми Leaf;Проинформировать дежурного PSCore по телефону и сделать оповещение по почте на адрес PSCore@tele2.ru;Транспортная сеть кратковременно недоступна для взаимодействия серверов с размещенными элементами PS core;4;3;Возможно;Возможно;Возможно;Нет
MME Host X;BGP Peer Long Failure;MME_{$GEO}.{$Node}.FRR.BGPPeerLong;BGPPeerLong;WARN;WARN: падение одного или нескольких линков на долгий промежуток времени (15мин);Разорвано BGP соединение с одним или несколькими Leaf в течение длительного интервала времени;Проинформировать дежурного PSCore по телефону и сделать оповещение по почте на адрес PSCore@tele2.ru;Транспортная сеть недоступна для взаимодействия серверов с размещенными элементами PS core;4;3;Возможно;Возможно;Возможно;Нет
MME Host X;BGP Peer Long Failure;MME_{$GEO}.{$Node}.FRR.BGPPeerLong;BGPPeerLong;ERR;ERR: падение всех линков на долгий промежуток времени (15мин);Разорвано BGP соединение со всеми Leaf в течение длительного интервала времени;Проинформировать дежурного PSCore по телефону и сделать оповещение по почте на адрес PSCore@tele2.ru;Транспортная сеть недоступна для взаимодействия серверов с размещенными элементами PS core;4;3;Возможно;Возможно;Возможно;Нет
MME Host X;BFD Peer State;MME_{$GEO}.{$Node}.FRR.BFDPeer;BFDPeer;WARN;WARN: падение одного или нескольких линков;Имеется проблема в интеграции с TOR свичем на уровне транспорта;Проинформировать дежурного PSCore по телефону и сделать оповещение по почте на адрес PSCore@tele2.ru;;4;;Возможно;;;
MME Host X;BFD Peer State;MME_{$GEO}.{$Node}.FRR.BFDPeer;BFDPeer;ERR;ERR: падение всех линков;Имеется проблема в интеграции с TOR свичем на уровне транспорта;Проинформировать дежурного PSCore по телефону и сделать оповещение по почте на адрес PSCore@tele2.ru;;3;;Возможно;;;
MME Host X;BFD Peer Long Failure;MME_{$GEO}.{$Node}.FRR.BFDPeerLong;BFDPeerLong;WARN;WARN: падение одного или нескольких линков на долгий промежуток времени (15мин);Имеется проблема в интеграции с TOR свичем на уровне транспорта;Проинформировать дежурного PSCore по телефону и сделать оповещение по почте на адрес PSCore@tele2.ru;;4;;Возможно;;;
MME Host X;BFD Peer Long Failure;MME_{$GEO}.{$Node}.FRR.BFDPeerLong;BFDPeerLong;ERR;ERR: падение всех линков на долгий промежуток времени (15мин);Имеется проблема в интеграции с TOR свичем на уровне транспорта;Проинформировать дежурного PSCore по телефону и сделать оповещение по почте на адрес PSCore@tele2.ru;;3;;Возможно;;;
Hardware Host X;Network Interface Status ShortFailure;Nokia_Hardware.{$Node}.NetworkInterfaceStatusShortFailure;NetworkInterfaceStatusShortFailure;WARN;WARN: Один из сетевых интерфейсов перешёл в статус testing (3), unknown (4), dormant (5) state.;Один из сетевых интерфейсов сервера MME не в состоянии up;Проинформировать дежурного PSCore по телефону и сделать оповещение по почте на адрес PSCore@tele2.ru;Возможна перегрузка других сетевых интерфейсов MME, что может привести к потере трафика;4;3;Возможно;Возможно;Возможно;Нет
Hardware Host X;Network Interface Status ShortFailure;Nokia_Hardware.{$Node}.NetworkInterfaceStatusShortFailure;NetworkInterfaceStatusShortFailure;ERR;ERR:Сетевой интерфейс перешёл в  down(2) state.;Сетевой интерфейс перешёл в  down(2) state.;Проинформировать дежурного PSCore по телефону и сделать оповещение по почте на адрес PSCore@tele2.ru;Возможна перегрузка других сетевых интерфейсов MME, что может привести к потере трафика;4;3;Возможно;Возможно;Возможно;Нет
Hardware Host X;Network Interface Status LongFailure;Nokia_Hardware.{$Node}.NetworkInterfaceStatusLongFailure;NetworkInterfaceStatusLongFailure;WARN;WARN: Один из сетевых интерфейсов в статусе testing (3), unknown (4), dormant (5) state в течение 15 минут.;Один из сетевых интерфейсов сервера MME не в состоянии up в течение длительного интервала времени (15 мин);Проинформировать дежурного PSCore по телефону и сделать оповещение по почте на адрес PSCore@tele2.ru;Возможна перегрузка других сетевых интерфейсов MME, что может привести к потере трафика;4;3;Возможно;Возможно;Возможно;Нет
Hardware Host X;Network Interface Status LongFailure;Nokia_Hardware.{$Node}.NetworkInterfaceStatusLongFailure;NetworkInterfaceStatusLongFailure;ERR;ERR:Сетевой интерфейс в статусе down(2) state в течение 15 минут.;Сетевой интерфейс в статусе down(2) state в течение 15 минут.;Проинформировать дежурного PSCore по телефону и сделать оповещение по почте на адрес PSCore@tele2.ru;Возможна перегрузка других сетевых интерфейсов MME, что может привести к потере трафика;4;3;Возможно;Возможно;Возможно;Нет
MME Host X;Chrony LeapStatus;MME_{$GEO}.{$Node}.ChronySync;ChronySync;WARN;WARN: Статус Chrony в “not synchronized”;Синхронизация времени недоступна;Сделать оповещение по почте на адрес PSCore@tele2.ru;Возможны проблемы с некорректным временем в CDR, работе мониторинга;5;;Нет;Нет;Нет;Нет
MME Host X;Config Backup Status;MME_{$GEO}.{$Node}.Protei_MME.BackupStatus;BackupStatus;WARN;WARN: Backup Status для конфигурации неуспешен.;Снятие бекапа конфигурации прошло неуспешно;Сделать оповещение по почте на адрес PSCore@tele2.ru;Восстановление наиболее актуальной конфигурации из бекапа невозможно до восстановления.;5;;Нет;Нет;Нет;Нет
Hardware Host X;Soft Raid Disk Status;Nokia_Hardware.{$Node}.SoftRaidDiskStatus;SoftRaidDiskStatus;WARN;WARN: Один из дисков имеет некорректный статус по mdstat;Неполадки в рейде могут привести к неконсистентности данных в рейде;;;;;Нет;;;
Hardware Host X;PowerSupply Redundancy status;Nokia_Hardware.{$Node}.PowerSupplyRedundancy;PowerSupplyRedundancy;WARN;WARN: 1 (other);Статус резервирования для PSU в статусе “other”;Отправить письмо на CloudCP@tele2.ru;В случае активной аварии и потери основного PSU сервер будет полностью недоступен.;4;4;Нет;Нет;Нет;Нет
Hardware Host X;PowerSupply Redundancy status;Nokia_Hardware.{$Node}.PowerSupplyRedundancy;PowerSupplyRedundancy;ERR;ERR: 3 (lost);Статус резервирования для PSU в статусе “lost” ;Отправить письмо на CloudCP@tele2.ru;В случае активной аварии и потери основного PSU сервер будет полностью недоступен.;4;4;Нет;Нет;Нет;Нет
Hardware Host X;PowerSupply Status;Nokia_Hardware.{$Node}.PowerSupplyStatus;PowerSupplyStatus;WARN;WARN: 4 (predictiveFailure);На одном из PSU зафиксирована авария. Статусы:predictiveFailure(4);Отправить письмо на CloudCP@tele2.ru;В случае потери и второго PSU, сервер будет полностью недоступен.;4;4;Нет;Нет;Нет;Нет
Hardware Host X;PowerSupply Status;Nokia_Hardware.{$Node}.PowerSupplyStatus;PowerSupplyStatus;ERR;ERR: 0 (allDeasserted),  2 (powerSupplyFailureDetected) , 8 (powerSupplyInputLost-ACDC);На одном из PSU зафиксирована авария. Статусы:PowerSupplyFailureDetected(2), powerSupplyInputLost-ACDC(8);Отправить письмо на CloudCP@tele2.ru;В случае потери и второго PSU, сервер будет полностью недоступен.;4;4;Нет;Нет;Нет;Нет
Hardware Host X;CPU Utilization Threshold;Nokia_Hardware.{$Node}.CPUUtilization;CPUUtilization;WARN;WARN: 80%;Потребление CPU (в процентах) достигло порогового значения;Отправить письмо на CloudCP@tele2.ru;Скорее всего, одно из приложений стало потреблять больше ресурсов чем при н.у. Возможно, что части приложений на VM этого сервера не хватает ресурсов.;3;3;Нет;Нет;Нет;Нет
Hardware Host X;CPU Utilization Threshold;Nokia_Hardware.{$Node}.CPUUtilization;CPUUtilization;ERR;ERR: 90%;Потребление CPU (в процентах) достигло порогового значения;Отправить письмо на CloudCP@tele2.ru;Скорее всего, одно из приложений стало потреблять больше ресурсов чем при н.у. Возможно, что части приложений на VM этого сервера не хватает ресурсов.;3;3;Нет;Нет;Нет;Нет
Hardware Host X;Memory Utilization Threshold;Nokia_Hardware.{$Node}.MemoryUtilization;MemoryUtilization;WARN;WARN: 80%;Потребление оперативной памяти (в процентах) достигло порогового значения;Отправить письмо на CloudCP@tele2.ru;Скорее всего, одно из приложений стало потреблять больше ресурсов чем при н.у. Возможно, что части приложений на VM этого сервера не хватает ресурсов.;3;3;Нет;Нет;Нет;Нет
Hardware Host X;Memory Utilization Threshold;Nokia_Hardware.{$Node}.MemoryUtilization;MemoryUtilization;ERR;ERR: 90%;Потребление оперативной памяти (в процентах) достигло порогового значения;Отправить письмо на CloudCP@tele2.ru;Скорее всего, одно из приложений стало потреблять больше ресурсов чем при н.у. Возможно, что части приложений на VM этого сервера не хватает ресурсов.;3;3;Нет;Нет;Нет;Нет
Hardware Host X;FanDevice Status;Nokia_Hardware.{$Node}.FanDeviceStatus;FanDeviceStatus;WARN;WARN: other (1)||unknown (2)||nonCriticalLower (7);Один или несколько кулеров на физическом сервере перешли в аварийное состояние.;Отправить письмо на CloudCP@tele2.ru;Потеря одного кулера не должна привести к влиянию, кроме незначительного повышения температуры. Если происходит падение нескольких кулеров разом, может привести к перегреву сервера.;4;4;Нет;Нет;Нет;Нет
Hardware Host X;FanDevice Status;Nokia_Hardware.{$Node}.FanDeviceStatus;FanDeviceStatus;ERR;ERR: criticalLower (8);Один или несколько кулеров на физическом сервере перешли в аварийное состояние.;Отправить письмо на CloudCP@tele2.ru;Потеря одного кулера не должна привести к влиянию, кроме незначительного повышения температуры. Если происходит падение нескольких кулеров разом, может привести к перегреву сервера.;4;4;Нет;Нет;Нет;Нет
Hardware Host X;TemperatureDevice Status;Nokia_Hardware.{$Node}.TemperatureDeviceStatus;TemperatureDeviceStatus;WARN;WARN: other (1)||unknown (2)||nonCriticalLower (7);Один из датчиков температуры достиг порогового значения, либо значение не получено.;Отправить письмо на CloudCP@tele2.ru;При достижении критического значения, сервер может перегреться и стать недоступным полностью.;3;3;Нет;Нет;Нет;Нет
Hardware Host X;TemperatureDevice Status;Nokia_Hardware.{$Node}.TemperatureDeviceStatus;TemperatureDeviceStatus;ERR;ERR: criticalUpper (8);Один из датчиков температуры достиг порогового значения, либо значение не получено.;Отправить письмо на CloudCP@tele2.ru;При достижении критического значения, сервер может перегреться и стать недоступным полностью.;3;3;Нет;Нет;Нет;Нет
Hardware Host X;VoltageDevice Status;Nokia_Hardware.{$Node}.VoltageDeviceStatus;VoltageDeviceStatus;WARN;WARN: other (1)||unknown (2)||nonCriticalUpper (4);Потребляемая мощность в вольтах достигла порогового значения. ;Отправить письмо на CloudCP@tele2.ru;Нет прямого влияния.;4;4;Нет;Нет;Нет;Нет
Hardware Host X;VoltageDevice Status;Nokia_Hardware.{$Node}.VoltageDeviceStatus;VoltageDeviceStatus;ERR;ERR: criticalUpper (8), failed (10), Lost (13) ;Потребляемая мощность в вольтах достигла порогового значения. ;Отправить письмо на CloudCP@tele2.ru;Нет прямого влияния.;4;4;Нет;Нет;Нет;Нет
Hardware Host X;HDDDevice Status;Nokia_Hardware.{$Node}.HDDDeviceStatus;HDDDeviceStatus;WARN;WARN: other (1)||unknown (2)||nonCriticalUpper (4)||nonCriticalLower(7);Один из дисков на физическом сервере перешёл в аварийное состояние.;Отправить письмо на CloudCP@tele2.ru;Возможна потеря сервиса, в зависимости от механизма резервирования.;4;4;Возможно;Возможно;Возможно;Нет
Hardware Host X;HDDDevice Status;Nokia_Hardware.{$Node}.HDDDeviceStatus;HDDDeviceStatus;ERR;ERR: criticalUpper(5), nonRecoverableUpper (6), criticalUpper (8),nonRecoverableLower(9), failed (10);Один из дисков на физическом сервере перешёл в аварийное состояние.;Отправить письмо на CloudCP@tele2.ru;Возможна потеря сервиса, в зависимости от механизма резервирования.;4;4;Возможно;Возможно;Возможно;Нет
Hardware Host X;Network Interface Status ShortFailure;Nokia_Hardware.{$Node}.NetworkInterfaceStatusShortFailure;NetworkInterfaceStatusShortFailure;WARN;WARN: Один из сетевых интерфейсов перешёл в статус testing (3), unknown (4), dormant (5) state.;Один из сетевых интерфейсов сервера MME не в состоянии up;Отправить письмо на CloudCP@tele2.ru;Возможна перегрузка других сетевых интерфейсов MME, что может привести к потере трафика;3;3;Возможно;Возможно;Возможно;Нет
Hardware Host X;Network Interface Status LongFailure;Nokia_Hardware.{$Node}.NetworkInterfaceStatusShortFailure;NetworkInterfaceStatusShortFailure;ERR;ERR:Сетевой интерфейс перешёл в  down(2) state.;Сетевой интерфейс перешёл в  down(2) state.;Отправить письмо на CloudCP@tele2.ru;Возможна перегрузка других сетевых интерфейсов MME, что может привести к потере трафика;3;3;Возможно;Возможно;Возможно;Нет
Hardware Host X;Network Interface Status LongFailure;Nokia_Hardware.{$Node}.NetworkInterfaceStatusLongFailure;NetworkInterfaceStatusLongFailure;WARN;WARN: Один из сетевых интерфейсов в статусе testing (3), unknown (4), dormant (5) state в течение 15 минут.;Один из сетевых интерфейсов сервера MME не в состоянии up в течение длительного интервала времени (15 мин);Отправить письмо на CloudCP@tele2.ru, звонок по телефону +79527687031 на дежурного cloud;Возможна перегрузка других сетевых интерфейсов MME, что может привести к потере трафика;3;3;Возможно;Возможно;Возможно;Нет
Hardware Host X;Network Interface Status LongFailure;Nokia_Hardware.{$Node}.NetworkInterfaceStatusLongFailure;NetworkInterfaceStatusLongFailure;ERR;ERR:Сетевой интерфейс в статусе down(2) state в течение 15 минут.;Сетевой интерфейс в статусе down(2) state в течение 15 минут.;Отправить письмо на CloudCP@tele2.ru, звонок по телефону +79527687031 на дежурного cloud;Возможна перегрузка других сетевых интерфейсов MME, что может привести к потере трафика;3;3;Возможно;Возможно;Возможно;Нет
Hardware Host X;Host Unreachable;Nokia_Hardware.{$Node}.HostUnreachable;HostUnreachable;WARN;WARN: потери > 75% от одной или нескольких нод;Сетевая недоступность физического хоста;Отправить письмо на CloudCP@tele2.ru, звонок по телефону +79527687031 на дежурного cloud;Возможен выход из строя сервервера или оборудования маршрутизаторов. Для принятия решения о дальнейших шагах  требуется  диагностика со стороны Протей;2;2;Да;Да;Возможно;Нет
Hardware Host X;Host Unreachable;Nokia_Hardware.{$Node}.HostUnreachable;HostUnreachable;ERR;ERR: потери > 75% со всех остальных нод.;Сетевая недоступность физического хоста;Отправить письмо на CloudCP@tele2.ru, звонок по телефону +79527687031 на дежурного cloud;Возможен выход из строя сервервера или оборудования маршрутизаторов. Для принятия решения о дальнейших шагах  требуется  диагностика со стороны Протей;2;2;Да;Да;Возможно;Нет
Switch X;Switch Interface Status;Datacom.{$Node}.SwitchInterfaces;SwitchInterfaces;WARN;WARN: статус !=up на одном или нескольких интерфейсах;Один из сетевых интерфейсов на Switch перешёл в неактивное состояние.;Отправить письмо на CloudCP@tele2.ru, звонок по телефону +79527687031 на дежурного cloud;Возможна потеря сервиса, в зависимости от того, какие конкретно интерфейсы и в каком количестве вышли из строя;3;3;Возможно;Возможно;Возможно;Нет
Switch X;Switch Interface Status;Datacom.{$Node}.SwitchInterfaces;SwitchInterfaces;ERR;ERR: статус !=up на одном или нескольких интерфейсах в течение 15 минут.;Один из сетевых интерфейсов на Switch в неактивном состоянии дольше 15 минут.;Отправить письмо на CloudCP@tele2.ru, звонок по телефону +79527687031 на дежурного cloud;Возможна потеря сервиса, в зависимости от того, какие конкретно интерфейсы и в каком количестве вышли из строя;3;3;Возможно;Возможно;Возможно;Нет
Switch X;Switch Unreachable;Datacom.{$Node}.SwitchUnreachable;SwitchUnreachable;WARN;WARN: потери пингов >75% на момент последней проверки;Switch не пингуется с нод мониторинга.;Отправить письмо на CloudCP@tele2.ru, звонок по телефону +79527687031 на дежурного cloud;Есть вероятность полной потери сетевой связности и сервиса соответственно.;2;2;Возможно;Возможно;Возможно;Нет
Switch X;Switch Unreachable;Datacom.{$Node}.SwitchUnreachable;SwitchUnreachable;ERR;ERR: потери пингов >75% в течение 5 минут.;Switch не пингуется с нод мониторинга.;Отправить письмо на CloudCP@tele2.ru, звонок по телефону +79527687031 на дежурного cloud;Есть вероятность полной потери сетевой связности и сервиса соответственно.;2;2;Возможно;Возможно;Возможно;Нет